…
Check it's loaded correctly:


```r
trigpoints
```

```
## Simple feature collection with 31521 features and 14 fields
## geometry type:  POINT
## dimension:      XY
## bbox:           xmin: 8710.27 ymin: 5575.208 xmax: 654884 ymax: 1219690
## projected CRS:  OSGB 1936 / British National Grid
## # A tibble: 31,521 x 15
##    name    station new_name height order type  sec_com_blk com_date   maintained
##    <chr>   <chr>   <chr>     <dbl> <int> <chr> <chr>       <date>     <date>    
##  1 1       TL08/I… TL08I010      0     3 APEX  TL08        1954-06-01 1979-05-01
##  2 2 Site… SD80/T… SD80T150      0     4 BOLT  SD80        1949-06-01 NA        
##  3 2 Site… SD80/T… SD80T150      0     4 CENT… SD80        1949-06-01 NA        
##  4 2 Site… SD80/T… SD80T190      0     4 BOLT  SD80        1949-06-01 NA        
##  5 202 F … SJ44/T… SJ44T132      0     4 RIVET SJ44        1957-06-01 NA        
##  6 208 Le… SD30/T… SD30T308      0     4 RIVET SD30        1954-06-01 NA        
##  7 3 Site… SD80/T… SD80T149      0     4 BOLT  SD80        1949-06-01 NA        
##  8 3 Site… SD80/T… SD80T149      0     4 CENT… SD80        1949-06-01 NA        
##  9 507 Se… TQ53/T… TQ53T061      0     3 BOLT  TQ53        1949-06-01 NA        
## 10 53 Col… TQ53/T… TQ53T069      0     3 BOLT  TQ53        1949-06-01 1982-04-01
## # … with 31,511 more rows, and 6 more variables: lvl_class <int>,
## #   lvl_date <date>, lvl_datum <chr>, destroyed <int>, notes <chr>,
## #   geometry <POINT [m]>
```
…
